%YAML 1.1
%TAG !u! tag:unity3d.com,2011:
--- !u!114 &11400000
MonoBehaviour:
  m_ObjectHideFlags: 0
  m_CorrespondingSourceObject: {fileID: 0}
  m_PrefabInstance: {fileID: 0}
  m_PrefabAsset: {fileID: 0}
  m_GameObject: {fileID: 0}
  m_Enabled: 1
  m_EditorHideFlags: 0
  m_Script: {fileID: -1893448595, guid: a040fb66244a7f54289914d98ea4ef7d, type: 3}
  m_Name: B_Drop_Heart
  m_EditorClassIdentifier: 
  _data:
    _json: '{"graph":{"variables":{"collection":{"$content":[],"$version":"A"},"$version":"A"},"controlInputDefinitions":[],"controlOutputDefinitions":[],"valueInputDefinitions":[],"valueOutputDefinitions":[],"title":null,"summary":null,"pan":{"x":-350.3461,"y":204.5335},"zoom":0.6999999,"elements":[{"coroutine":false,"defaultValues":{"target":null},"position":{"x":-969.0,"y":-115.0},"guid":"19715c5b-3fc0-4499-908b-8490ef69e2fc","$version":"A","$type":"Bolt.OnTriggerEnter2D","$id":"9"},{"specifyFallback":false,"kind":"Scene","defaultValues":{"name":{"$content":"Sound_Manager","$type":"System.String"}},"position":{"x":531.0,"y":136.0},"guid":"053e995a-6b5e-4d57-a86d-0eb73fde02fd","$version":"A","$type":"Bolt.GetVariable","$id":"11"},{"argumentCount":0,"defaultValues":{"name":{"$content":"Get_Pickup","$type":"System.String"},"target":null},"position":{"x":835.0,"y":-106.0},"guid":"5edcba12-3e09-4d59-af0a-5a7b521c52ed","$version":"A","$type":"Bolt.TriggerCustomEvent","$id":"13"},{"argumentCount":0,"defaultValues":{"name":{"$content":"Pick_Up_Heart","$type":"System.String"},"target":null},"position":{"x":593.0,"y":-269.0},"guid":"b8e11b9c-8abc-4746-b2ba-c2b513ecd971","$version":"A","$type":"Bolt.TriggerCustomEvent","$id":"15"},{"type":"System.String","value":{"$content":"cqll","$type":"System.String"},"defaultValues":{},"position":{"x":486.0,"y":-261.0},"guid":"423151aa-799a-4c17-a75e-927a8bf2db39","$version":"A","$type":"Bolt.Literal","$id":"17"},{"defaultValues":{},"position":{"x":996.0,"y":35.0},"guid":"f3e0e67d-5b25-4eee-9396-87107a729924","$version":"A","$type":"Bolt.Self","$id":"19"},{"chainable":false,"member":{"name":"Destroy","parameterTypes":["UnityEngine.Object"],"targetType":"UnityEngine.GameObject","targetTypeName":"UnityEngine.GameObject","$version":"A"},"defaultValues":{"%obj":null},"position":{"x":1167.0,"y":-93.0},"guid":"fce41510-a13d-4e5a-83b3-fd01b825b4bf","$version":"A","$type":"Bolt.InvokeMember","$id":"21"},{"defaultValues":{},"position":{"x":-330.0,"y":-136.0},"guid":"5f1017c2-bb2f-4a8c-ba44-957a7c7d0a86","$version":"A","$type":"Bolt.Branch","$id":"24"},{"specifyFallback":false,"kind":"Application","defaultValues":{"name":{"$content":"Player_Health","$type":"System.String"}},"position":{"x":-292.0,"y":-22.0},"guid":"8500a96f-d738-4a6d-9332-131cee77b808","$version":"A","$type":"Bolt.GetVariable","$id":"26"},{"defaultValues":{"b":{"$content":1.0,"$type":"System.Single"}},"position":{"x":274.0,"y":98.0},"guid":"42948733-b160-4af6-97dc-85ae4284b14f","$version":"A","$type":"Bolt.ScalarAdd","$id":"28"},{"chainable":false,"member":{"name":"CompareTag","parameterTypes":["System.String"],"targetType":"UnityEngine.GameObject","targetTypeName":"UnityEngine.GameObject","$version":"A"},"defaultValues":{"target":null,"%tag":{"$content":"Player","$type":"System.String"}},"position":{"x":-585.0,"y":-118.0},"guid":"7b6d70b2-bd1f-4cbb-bc84-574436abdfaa","$version":"A","$type":"Bolt.InvokeMember","$id":"30"},{"specifyFallback":false,"kind":"Application","defaultValues":{"name":{"$content":"Player","$type":"System.String"}},"position":{"x":407.0,"y":-191.0},"guid":"ac3d535e-6636-4dc7-bf88-20d401b038b5","$version":"A","$type":"Bolt.GetVariable","$id":"33"},{"kind":"Application","defaultValues":{"name":{"$content":"Player_Health","$type":"System.String"}},"position":{"x":430.0,"y":-29.0},"guid":"fd19c3fc-f4d8-4f18-94d2-af9cfa35a54a","$version":"A","$type":"Bolt.SetVariable","$id":"35"},{"numeric":true,"defaultValues":{"b":{"$content":3.0,"$type":"System.Single"}},"position":{"x":-72.0,"y":-12.0},"guid":"142b2787-94fe-4091-a74b-b1a9504e4c5c","$version":"A","$type":"Bolt.Less","$id":"37"},{"defaultValues":{},"position":{"x":119.0,"y":-142.0},"guid":"aebfa425-3ead-4c6b-808b-6d14b39d6212","$version":"A","$type":"Bolt.Branch","$id":"39"},{"specifyFallback":false,"kind":"Application","defaultValues":{"name":{"$content":"Player_Health","$type":"System.String"}},"position":{"x":52.0,"y":140.0},"guid":"d3323ecc-e604-4656-8b8f-40eb157b6857","$version":"A","$type":"Bolt.GetVariable","$id":"41"},{"chainable":false,"member":{"name":"Log","parameterTypes":["System.Object"],"targetType":"UnityEngine.Debug","targetTypeName":"UnityEngine.Debug","$version":"A"},"defaultValues":{},"position":{"x":704.0,"y":-243.0},"guid":"3ba89e76-faf1-47a5-8ecd-51ebc97305b2","$version":"A","$type":"Bolt.InvokeMember","$id":"43"},{"sourceUnit":{"$ref":"9"},"sourceKey":"trigger","destinationUnit":{"$ref":"30"},"destinationKey":"enter","guid":"b557f21c-d153-444e-8f43-e5437faa3b47","$type":"Bolt.ControlConnection"},{"sourceUnit":{"$ref":"35"},"sourceKey":"assigned","destinationUnit":{"$ref":"13"},"destinationKey":"enter","guid":"23d01f06-8036-49fc-9503-65b2600b7cc4","$type":"Bolt.ControlConnection"},{"sourceUnit":{"$ref":"43"},"sourceKey":"exit","destinationUnit":{"$ref":"13"},"destinationKey":"enter","guid":"5ffa2d36-d844-4ee9-88f2-5a4f2d1ca5b1","$type":"Bolt.ControlConnection"},{"sourceUnit":{"$ref":"30"},"sourceKey":"exit","destinationUnit":{"$ref":"24"},"destinationKey":"enter","guid":"78797eb0-f80b-4d9a-b940-85eb8e1d2c5f","$type":"Bolt.ControlConnection"},{"sourceUnit":{"$ref":"24"},"sourceKey":"ifTrue","destinationUnit":{"$ref":"39"},"destinationKey":"enter","guid":"366b2fec-f0dc-4008-b38c-b0817a985a58","$type":"Bolt.ControlConnection"},{"sourceUnit":{"$ref":"15"},"sourceKey":"exit","destinationUnit":{"$ref":"43"},"destinationKey":"enter","guid":"2982fbf2-8df6-4457-8b7a-2f19072e4024","$type":"Bolt.ControlConnection"},{"sourceUnit":{"$ref":"39"},"sourceKey":"ifTrue","destinationUnit":{"$ref":"35"},"destinationKey":"assign","guid":"f35eb9b6-7610-4f49-ae1c-59d5050daf6c","$type":"Bolt.ControlConnection"},{"sourceUnit":{"$ref":"13"},"sourceKey":"exit","destinationUnit":{"$ref":"21"},"destinationKey":"enter","guid":"dbf30afc-b5ee-4619-910d-3cb19351010b","$type":"Bolt.ControlConnection"},{"sourceUnit":{"$ref":"17"},"sourceKey":"output","destinationUnit":{"$ref":"43"},"destinationKey":"%message","guid":"0817044b-cf0f-458d-806d-c5843535c3c0","$type":"Bolt.ValueConnection"},{"sourceUnit":{"$ref":"41"},"sourceKey":"value","destinationUnit":{"$ref":"28"},"destinationKey":"a","guid":"972017ee-1972-4039-8387-8451bbdc3412","$type":"Bolt.ValueConnection"},{"sourceUnit":{"$ref":"26"},"sourceKey":"value","destinationUnit":{"$ref":"37"},"destinationKey":"a","guid":"7c21ef56-3133-450a-9acc-6cd005dd4064","$type":"Bolt.ValueConnection"},{"sourceUnit":{"$ref":"33"},"sourceKey":"value","destinationUnit":{"$ref":"15"},"destinationKey":"target","guid":"7f838aa6-1cda-490a-b8cd-b0cbde79f638","$type":"Bolt.ValueConnection"},{"sourceUnit":{"$ref":"9"},"sourceKey":"collider","destinationUnit":{"$ref":"30"},"destinationKey":"target","guid":"d0de7573-0455-4530-b664-b146df79cf24","$type":"Bolt.ValueConnection"},{"sourceUnit":{"$ref":"30"},"sourceKey":"result","destinationUnit":{"$ref":"24"},"destinationKey":"condition","guid":"26e17707-5263-4148-8e65-ebb784f6cee8","$type":"Bolt.ValueConnection"},{"sourceUnit":{"$ref":"37"},"sourceKey":"comparison","destinationUnit":{"$ref":"39"},"destinationKey":"condition","guid":"0d6614f4-dec0-4e51-bb16-c3ae1e8bd5a6","$type":"Bolt.ValueConnection"},{"sourceUnit":{"$ref":"19"},"sourceKey":"self","destinationUnit":{"$ref":"21"},"destinationKey":"%obj","guid":"f63f7e49-5af1-4eb4-bee0-9c41e442cbc8","$type":"Bolt.ValueConnection"},{"sourceUnit":{"$ref":"28"},"sourceKey":"sum","destinationUnit":{"$ref":"35"},"destinationKey":"input","guid":"f4f118ae-c7fe-4510-bfd3-9654ba6d1283","$type":"Bolt.ValueConnection"},{"sourceUnit":{"$ref":"11"},"sourceKey":"value","destinationUnit":{"$ref":"13"},"destinationKey":"target","guid":"241c3ef2-7ebb-4b8f-b986-deebfebcf1fe","$type":"Bolt.ValueConnection"}],"$version":"A"}}'
    _objectReferences: []
