%YAML 1.1
%TAG !u! tag:unity3d.com,2011:
--- !u!114 &11400000
MonoBehaviour:
  m_ObjectHideFlags: 0
  m_CorrespondingSourceObject: {fileID: 0}
  m_PrefabInstance: {fileID: 0}
  m_PrefabAsset: {fileID: 0}
  m_GameObject: {fileID: 0}
  m_Enabled: 1
  m_EditorHideFlags: 0
  m_Script: {fileID: -1893448595, guid: a040fb66244a7f54289914d98ea4ef7d, type: 3}
  m_Name: B_HUD
  m_EditorClassIdentifier: 
  _data:
    _json: '{"graph":{"variables":{"collection":{"$content":[],"$version":"A"},"$version":"A"},"controlInputDefinitions":[],"controlOutputDefinitions":[],"valueInputDefinitions":[],"valueOutputDefinitions":[],"title":null,"summary":null,"pan":{"x":70.27969,"y":-73.0408},"zoom":0.8,"elements":[{"specifyFallback":false,"kind":"Object","defaultValues":{"name":{"$content":"Text_NB_Ennemies","$type":"System.String"},"object":null},"position":{"x":-274.0,"y":-82.0},"guid":"c2dff83a-33b4-4c4d-b0fb-5ff335d647f1","$version":"A","$type":"Bolt.GetVariable","$id":"9"},{"chainable":false,"member":{"name":"text","parameterTypes":null,"targetType":"UnityEngine.UI.Text","targetTypeName":"UnityEngine.UI.Text","$version":"A"},"defaultValues":{"target":null,"input":{"$content":"","$type":"System.String"}},"position":{"x":364.0,"y":-140.0},"guid":"1ce366b0-fffc-428f-89a2-b8346f70c2ca","$version":"A","$type":"Bolt.SetMember","$id":"11"},{"coroutine":false,"defaultValues":{},"position":{"x":-40.0,"y":-198.0},"guid":"27398b51-5ae0-45a6-bfe4-79052050dedf","$version":"A","$type":"Bolt.Update","$id":"14"},{"specifyFallback":false,"kind":"Object","defaultValues":{"name":{"$content":"Actual_Ennemi_On_Scene","$type":"System.String"},"object":null},"position":{"x":-186.0,"y":72.0},"guid":"c69a120a-ee54-435c-96d6-bac6f5299085","$version":"A","$type":"Bolt.GetVariable","$id":"16"},{"specifyFallback":false,"kind":"Scene","defaultValues":{"name":{"$content":"Ennemy_Manager","$type":"System.String"}},"position":{"x":-423.0,"y":105.0},"guid":"4990d447-48ae-4399-9cb5-2b52ff3063a1","$version":"A","$type":"Bolt.GetVariable","$id":"18"},{"chainable":false,"member":{"name":"ToString","parameterTypes":[],"targetType":"System.Single","targetTypeName":"System.Single","$version":"A"},"defaultValues":{"target":{"$content":0.0,"$type":"System.Single"}},"position":{"x":129.0,"y":19.0},"guid":"8530da6b-66c8-45f2-bcb1-d13796edfbea","$version":"A","$type":"Bolt.InvokeMember","$id":"20"},{"sourceUnit":{"$ref":"14"},"sourceKey":"trigger","destinationUnit":{"$ref":"11"},"destinationKey":"assign","guid":"e9370a55-b37f-465c-b348-ba2d7d11efb8","$type":"Bolt.ControlConnection"},{"sourceUnit":{"$ref":"9"},"sourceKey":"value","destinationUnit":{"$ref":"11"},"destinationKey":"target","guid":"c489baf9-555a-4990-a40a-cdd814bc46b8","$type":"Bolt.ValueConnection"},{"sourceUnit":{"$ref":"16"},"sourceKey":"value","destinationUnit":{"$ref":"20"},"destinationKey":"target","guid":"92f41752-6a7c-4f00-aad7-1b096fa2f323","$type":"Bolt.ValueConnection"},{"sourceUnit":{"$ref":"20"},"sourceKey":"result","destinationUnit":{"$ref":"11"},"destinationKey":"input","guid":"dee75ba4-9f0a-4c15-888e-d181141b28e9","$type":"Bolt.ValueConnection"},{"sourceUnit":{"$ref":"18"},"sourceKey":"value","destinationUnit":{"$ref":"16"},"destinationKey":"object","guid":"bf3b32fe-d02d-4e6a-a0e4-f439488d26ec","$type":"Bolt.ValueConnection"}],"$version":"A"}}'
    _objectReferences: []
