%YAML 1.1
%TAG !u! tag:unity3d.com,2011:
--- !u!114 &11400000
MonoBehaviour:
  m_ObjectHideFlags: 0
  m_CorrespondingSourceObject: {fileID: 0}
  m_PrefabInstance: {fileID: 0}
  m_PrefabAsset: {fileID: 0}
  m_GameObject: {fileID: 0}
  m_Enabled: 1
  m_EditorHideFlags: 0
  m_Script: {fileID: -1893448595, guid: a040fb66244a7f54289914d98ea4ef7d, type: 3}
  m_Name: MenuPause
  m_EditorClassIdentifier: 
  _data:
    _json: '{"graph":{"variables":{"collection":{"$content":[{"name":"bMenuIsNotOpen","value":{"$content":true,"$type":"System.Boolean"},"$version":"A"},{"name":"bSettingIsNotOpen","value":{"$content":true,"$type":"System.Boolean"},"$version":"A"},{"name":"levelToLoad","value":{"$content":0.0,"$type":"System.Single"},"$version":"A"}],"$version":"A"},"$version":"A"},"controlInputDefinitions":[],"controlOutputDefinitions":[],"valueInputDefinitions":[],"valueOutputDefinitions":[],"title":null,"summary":null,"pan":{"x":663.697,"y":1852.331},"zoom":1.0,"elements":[{"coroutine":false,"defaultValues":{"name":{"$content":"ResumeGame","$type":"System.String"}},"position":{"x":18.0,"y":1072.0},"guid":"b312486e-8dee-48d6-b847-040a3c809d9f","$version":"A","$type":"Bolt.BoltUnityEvent","$id":"12"},{"chainable":false,"member":{"name":"LoadScene","parameterTypes":["System.Int32"],"targetType":"UnityEngine.SceneManagement.SceneManager","targetTypeName":"UnityEngine.SceneManagement.SceneManager","$version":"A"},"defaultValues":{"%sceneBuildIndex":{"$content":0,"$type":"System.Int32"}},"position":{"x":-426.0,"y":204.0},"guid":"0eb46979-2916-4bea-9e68-9b1a674f1309","$version":"A","$type":"Bolt.InvokeMember","$id":"14"},{"specifyFallback":false,"kind":"Graph","defaultValues":{"name":{"$content":"bMenuIsNotOpen","$type":"System.String"}},"position":{"x":-331.0,"y":44.0},"guid":"618ddbdb-2f97-4a70-8886-84130c4c1b5b","$version":"A","$type":"Bolt.GetVariable","$id":"17"},{"chainable":false,"member":{"name":"SetActive","parameterTypes":["System.Boolean"],"targetType":"UnityEngine.GameObject","targetTypeName":"UnityEngine.GameObject","$version":"A"},"defaultValues":{"target":null,"%value":{"$content":false,"$type":"System.Boolean"}},"position":{"x":716.0,"y":353.0},"guid":"102a5924-848d-4821-9e34-48836845c3d7","$version":"A","$type":"Bolt.InvokeMember","$id":"19"},{"type":"System.String","value":{"$content":"Vertical","$type":"System.String"},"defaultValues":{},"position":{"x":2291.0,"y":1557.0},"guid":"44cd7f6a-1c38-4476-a14b-dd104175b3e0","$version":"A","$type":"Bolt.Literal","$id":"22"},{"specifyFallback":false,"kind":"Object","defaultValues":{"name":{"$content":"Canvas","$type":"System.String"},"object":null},"position":{"x":1175.0,"y":169.0},"guid":"e4c82375-3799-4bfd-8e0e-e09f108ce399","$version":"A","$type":"Bolt.GetVariable","$id":"24"},{"chainable":false,"member":{"name":"SetActive","parameterTypes":["System.Boolean"],"targetType":"UnityEngine.GameObject","targetTypeName":"UnityEngine.GameObject","$version":"A"},"defaultValues":{"target":null,"%value":{"$content":true,"$type":"System.Boolean"}},"position":{"x":1766.0,"y":69.0},"guid":"0bda1c17-1b29-4a2c-a229-9f6e6c7f1d10","$version":"A","$type":"Bolt.InvokeMember","$id":"26"},{"kind":"Graph","defaultValues":{"name":{"$content":"bMenuIsNotOpen","$type":"System.String"}},"position":{"x":330.0,"y":1070.0},"guid":"5e29041c-1aec-4f01-86b1-eb6c2bfe1924","$version":"A","$type":"Bolt.SetVariable","$id":"29"},{"type":"System.String","value":{"$content":"HorizontalQW","$type":"System.String"},"defaultValues":{},"position":{"x":2068.0,"y":1126.0},"guid":"a8cc62a2-7e2a-4a96-b96e-2bce9bd7bffb","$version":"A","$type":"Bolt.Literal","$id":"31"},{"type":"System.Boolean","value":{"$content":true,"$type":"System.Boolean"},"defaultValues":{},"position":{"x":162.0,"y":1169.0},"guid":"c0375bf0-c05f-4fd8-acba-9b4dc82f3af7","$version":"A","$type":"Bolt.Literal","$id":"33"},{"chainable":false,"member":{"name":"value","parameterTypes":null,"targetType":"UnityEngine.UI.Slider","targetTypeName":"UnityEngine.UI.Slider","$version":"A"},"defaultValues":{"target":null,"input":{"$content":0.0,"$type":"System.Single"}},"position":{"x":2439.0,"y":465.0},"guid":"48a5121d-f884-4e6f-ab7f-3506a12d86fa","$version":"A","$type":"Bolt.SetMember","$id":"35"},{"chainable":false,"member":{"name":"SetActive","parameterTypes":["System.Boolean"],"targetType":"UnityEngine.GameObject","targetTypeName":"UnityEngine.GameObject","$version":"A"},"defaultValues":{"target":null,"%value":{"$content":true,"$type":"System.Boolean"}},"position":{"x":1044.0,"y":353.0},"guid":"1131acc4-7be8-4f29-9271-22008a019aab","$version":"A","$type":"Bolt.InvokeMember","$id":"38"},{"specifyFallback":false,"kind":"Object","defaultValues":{"name":{"$content":"HUD","$type":"System.String"},"object":null},"position":{"x":396.0,"y":-34.0},"guid":"0cf02f9f-f35e-4936-a4bc-a90753a5eef2","$version":"A","$type":"Bolt.GetVariable"},{"specifyFallback":false,"kind":"Object","defaultValues":{"name":{"$content":"AnimatorFadeIn/Out","$type":"System.String"},"object":null},"position":{"x":436.0,"y":1880.0},"guid":"e44a4456-a0ad-4d70-9600-564cf0fedbf3","$version":"A","$type":"Bolt.GetVariable","$id":"43"},{"chainable":false,"member":{"name":"visible","parameterTypes":null,"targetType":"UnityEngine.Cursor","targetTypeName":"UnityEngine.Cursor","$version":"A"},"defaultValues":{"input":{"$content":false,"$type":"System.Boolean"}},"position":{"x":1582.0,"y":83.0},"guid":"8d2c62fa-a2da-4d15-a9a9-34ca945bc367","$version":"A","$type":"Bolt.SetMember","$id":"45"},{"kind":"Application","defaultValues":{"name":{"$content":"Set_Vertical_Keyboard","$type":"System.String"}},"position":{"x":2501.0,"y":1329.0},"guid":"449b4f6f-411a-4b65-bafa-516cb8827225","$version":"A","$type":"Bolt.SetVariable","$id":"48"},{"specifyFallback":false,"kind":"Object","defaultValues":{"name":{"$content":"ZoneSetting","$type":"System.String"},"object":null},"position":{"x":539.0,"y":428.0},"guid":"8abcfbdb-afb9-4aea-b55e-67332d5fd4e9","$version":"A","$type":"Bolt.GetVariable","$id":"50"},{"kind":"Graph","defaultValues":{"name":{"$content":"bSettingIsNotOpen","$type":"System.String"}},"position":{"x":1129.0,"y":705.0},"guid":"17d9fea1-0eac-42bf-9e4b-5f1d06cb23ee","$version":"A","$type":"Bolt.SetVariable","$id":"52"},{"kind":"Application","defaultValues":{"name":{"$content":"Set_Horizontal_Keyboard","$type":"System.String"}},"position":{"x":2137.0,"y":1403.0},"guid":"30bc5e00-cce4-45c1-a3c2-a0574a4b53da","$version":"A","$type":"Bolt.SetVariable","$id":"54"},{"coroutine":false,"defaultValues":{"name":{"$content":"Setting","$type":"System.String"}},"position":{"x":40.0,"y":715.0},"guid":"3832eaf8-b826-4588-bb99-b9ce8411f338","$version":"A","$type":"Bolt.BoltUnityEvent","$id":"56"},{"chainable":false,"member":{"name":"SetActive","parameterTypes":["System.Boolean"],"targetType":"UnityEngine.GameObject","targetTypeName":"UnityEngine.GameObject","$version":"A"},"defaultValues":{"target":null,"%value":{"$content":true,"$type":"System.Boolean"}},"position":{"x":216.0,"y":-857.0},"guid":"74319055-5ec3-4ba6-8c45-5e805f72f4dc","$version":"A","$type":"Bolt.InvokeMember","$id":"58"},{"chainable":false,"member":{"name":"SetActive","parameterTypes":["System.Boolean"],"targetType":"UnityEngine.GameObject","targetTypeName":"UnityEngine.GameObject","$version":"A"},"defaultValues":{"target":null,"%value":{"$content":true,"$type":"System.Boolean"}},"position":{"x":20.0,"y":-703.0},"guid":"3e4eb5c3-aa79-4ca5-b85f-d2a12cabdb65","$version":"A","$type":"Bolt.InvokeMember","$id":"61"},{"chainable":false,"member":{"name":"SetActive","parameterTypes":["System.Boolean"],"targetType":"UnityEngine.GameObject","targetTypeName":"UnityEngine.GameObject","$version":"A"},"defaultValues":{"target":null,"%value":{"$content":true,"$type":"System.Boolean"}},"position":{"x":206.0,"y":-702.0},"guid":"c1245ca6-c472-40a9-ba9e-be317e73cfae","$version":"A","$type":"Bolt.InvokeMember","$id":"64"},{"chainable":false,"member":{"name":"SetTrigger","parameterTypes":["System.String"],"targetType":"UnityEngine.Animator","targetTypeName":"UnityEngine.Animator","$version":"A"},"defaultValues":{"target":null,"%name":{"$content":"FadeOut","$type":"System.String"}},"position":{"x":758.0,"y":1703.0},"guid":"5a782d1b-6e6b-4b48-91c0-ff63fbfc8380","$version":"A","$type":"Bolt.InvokeMember","$id":"67"},{"coroutine":false,"defaultValues":{},"position":{"x":2446.0,"y":368.0},"guid":"e2268fcf-33ea-424c-8ed3-032d17f624d1","$version":"A","$type":"Bolt.Update","$id":"70"},{"specifyFallback":false,"kind":"Object","defaultValues":{"name":{"$content":"Audio_Slider","$type":"System.String"},"object":null},"position":{"x":2220.0,"y":653.0},"guid":"918e25c3-0a0b-4cbd-ad8e-2ff8b9d105ec","$version":"A","$type":"Bolt.GetVariable","$id":"72"},{"coroutine":false,"defaultValues":{"name":{"$content":"BackToMainMenu","$type":"System.String"}},"position":{"x":-783.0,"y":200.0},"guid":"8783814b-beb2-4eaa-9ab8-eff235c589d9","$version":"A","$type":"Bolt.BoltUnityEvent","$id":"74"},{"chainable":false,"member":{"name":"SetActive","parameterTypes":["System.Boolean"],"targetType":"UnityEngine.GameObject","targetTypeName":"UnityEngine.GameObject","$version":"A"},"defaultValues":{"target":null,"%value":{"$content":true,"$type":"System.Boolean"}},"position":{"x":1342.0,"y":1091.0},"guid":"fbd59a59-f3b1-4062-a6bb-150db09898d4","$version":"A","$type":"Bolt.InvokeMember","$id":"76"},{"member":{"name":"value","parameterTypes":null,"targetType":"UnityEngine.UI.Slider","targetTypeName":"UnityEngine.UI.Slider","$version":"A"},"defaultValues":{"target":null},"position":{"x":2585.0,"y":657.0},"guid":"f8bbe53b-4c87-4ea5-857c-0b0cd9de9aee","$version":"A","$type":"Bolt.GetMember","$id":"79"},{"specifyFallback":false,"kind":"Object","defaultValues":{"name":{"$content":"HUD","$type":"System.String"},"object":null},"position":{"x":1572.0,"y":305.0},"guid":"894b1812-5baf-4e37-8d16-565aa832ee09","$version":"A","$type":"Bolt.GetVariable","$id":"82"},{"specifyFallback":false,"kind":"Object","defaultValues":{"name":{"$content":"HUD","$type":"System.String"},"object":null},"position":{"x":-90.0,"y":42.0},"guid":"c63b68da-e240-4db0-ae0d-ff3d33a29dff","$version":"A","$type":"Bolt.GetVariable","$id":"84"},{"kind":"Application","defaultValues":{"name":{"$content":"Scene_Manager","$type":"System.String"}},"position":{"x":-400.0,"y":688.0},"guid":"13a4a4d3-f67f-4f18-ae9c-3d1aa98317fa","$version":"A","$type":"Bolt.SetVariable","$id":"86"},{"kind":"Graph","defaultValues":{"name":{"$content":"bSettingIsNotOpen","$type":"System.String"}},"position":{"x":1323.0,"y":348.0},"guid":"63a0ad8d-6b90-4de1-b9e6-26c1a2042a7f","$version":"A","$type":"Bolt.SetVariable","$id":"88"},{"kind":"Graph","defaultValues":{"name":{"$content":"bMenuIsNotOpen","$type":"System.String"}},"position":{"x":734.0,"y":79.0},"guid":"cba8f75f-5a44-47c5-912c-c585969b66d6","$version":"A","$type":"Bolt.SetVariable","$id":"90"},{"coroutine":false,"defaultValues":{"name":{"$content":"AZERTY","$type":"System.String"}},"position":{"x":1826.0,"y":1386.0},"guid":"b848c278-6dc7-419f-9e40-56bae968acfb","$version":"A","$type":"Bolt.BoltUnityEvent","$id":"92"},{"kind":"Application","defaultValues":{"name":{"$content":"Set_Horizontal_Keyboard","$type":"System.String"}},"position":{"x":2231.0,"y":980.0},"guid":"3f49b579-b725-4003-a851-9a2d527b7625","$version":"A","$type":"Bolt.SetVariable","$id":"94"},{"kind":"Application","defaultValues":{"name":{"$content":"Set_Vertical_Keyboard","$type":"System.String"}},"position":{"x":2595.0,"y":906.0},"guid":"62361f88-5a33-493e-875d-c051802f9e3c","$version":"A","$type":"Bolt.SetVariable","$id":"96"},{"coroutine":false,"defaultValues":{"name":{"$content":"Back","$type":"System.String"}},"position":{"x":-352.0,"y":-306.0},"guid":"4fb15a60-35f5-4438-a9a5-2e74be3eb01b","$version":"A","$type":"Bolt.BoltUnityEvent","$id":"98"},{"specifyFallback":false,"kind":"Application","defaultValues":{"name":{"$content":"Audio_Value","$type":"System.String"}},"position":{"x":1921.0,"y":700.0},"guid":"f031052d-44fa-49f3-98f8-68009b13840d","$version":"A","$type":"Bolt.GetVariable","$id":"100"},{"argumentCount":3,"coroutine":false,"defaultValues":{"target":null,"name":{"$content":"SetVisible","$type":"System.String"}},"position":{"x":-308.0,"y":-711.0},"guid":"9d5dc0cb-22ce-4410-aefa-27f4f6e5fe4e","$version":"A","$type":"Bolt.CustomEvent","$id":"102"},{"specifyFallback":false,"kind":"Object","defaultValues":{"name":{"$content":"ZoneBoutons","$type":"System.String"},"object":null},"position":{"x":610.0,"y":796.0},"guid":"810a0f71-bd79-4c8f-8e1c-2157abb661d2","$version":"A","$type":"Bolt.GetVariable","$id":"104"},{"chainable":false,"member":{"name":"timeScale","parameterTypes":null,"targetType":"UnityEngine.Time","targetTypeName":"UnityEngine.Time","$version":"A"},"defaultValues":{"input":{"$content":0.0,"$type":"System.Single"}},"position":{"x":578.0,"y":-242.0},"guid":"14416daf-0b28-4eb3-827f-4c2fb64946de","$version":"A","$type":"Bolt.SetMember","$id":"106"},{"argumentCount":1,"coroutine":false,"defaultValues":{"target":null,"name":{"$content":"SetVisible","$type":"System.String"}},"position":{"x":-317.0,"y":-1007.0},"guid":"9b8047fd-925c-40c5-8499-7453ed39f65d","$version":"A","$type":"Bolt.CustomEvent","$id":"109"},{"kind":"Graph","defaultValues":{"name":{"$content":"bMenuIsNotOpen","$type":"System.String"}},"position":{"x":341.0,"y":-246.0},"guid":"4cde1ee4-0e47-4453-b8f6-1dfea0ab20ff","$version":"A","$type":"Bolt.SetVariable","$id":"111"},{"coroutine":false,"defaultValues":{"name":{"$content":"QWERTY","$type":"System.String"}},"position":{"x":1920.0,"y":963.0},"guid":"30255feb-e3d8-4e4d-b156-6a57dc8cca5a","$version":"A","$type":"Bolt.BoltUnityEvent","$id":"113"},{"chainable":false,"member":{"name":"SetActive","parameterTypes":["System.Boolean"],"targetType":"UnityEngine.GameObject","targetTypeName":"UnityEngine.GameObject","$version":"A"},"defaultValues":{"target":null,"%value":{"$content":false,"$type":"System.Boolean"}},"position":{"x":104.0,"y":-194.0},"guid":"c430b9f7-5ab9-4bc4-b5d4-928bec13654a","$version":"A","$type":"Bolt.InvokeMember","$id":"115"},{"argumentCount":1,"coroutine":false,"defaultValues":{"target":null,"name":{"$content":"FadeToLevel","$type":"System.String"}},"position":{"x":135.0,"y":1710.0},"guid":"526a3613-e74f-4428-9ef9-c219363f8fb9","$version":"A","$type":"Bolt.CustomEvent","$id":"118"},{"chainable":false,"member":{"name":"SetActive","parameterTypes":["System.Boolean"],"targetType":"UnityEngine.GameObject","targetTypeName":"UnityEngine.GameObject","$version":"A"},"defaultValues":{"target":null,"%value":{"$content":true,"$type":"System.Boolean"}},"position":{"x":406.0,"y":-703.0},"guid":"af0bea4f-62cb-4ac0-b918-959d06c66afe","$version":"A","$type":"Bolt.InvokeMember","$id":"120"},{"specifyFallback":false,"kind":"Object","defaultValues":{"name":{"$content":"Canvas","$type":"System.String"},"object":null},"position":{"x":582.0,"y":-131.0},"guid":"97e5517c-2bcc-48bf-bb75-db146a9092d9","$version":"A","$type":"Bolt.GetVariable","$id":"123"},{"chainable":false,"member":{"name":"Quit","parameterTypes":[],"targetType":"UnityEngine.Application","targetTypeName":"UnityEngine.Application","$version":"A"},"defaultValues":{},"position":{"x":-462.0,"y":365.0},"guid":"235e57e6-af0c-44c2-83d4-ec1528dce01a","$version":"A","$type":"Bolt.InvokeMember","$id":"125"},{"coroutine":false,"defaultValues":{},"position":{"x":2177.0,"y":487.0},"guid":"6b38c173-4c5a-4156-949c-2541872da00a","$version":"A","$type":"Bolt.Start","$id":"128"},{"argumentCount":2,"coroutine":false,"defaultValues":{"target":null,"name":{"$content":"SetVisible","$type":"System.String"}},"position":{"x":-312.0,"y":-864.0},"guid":"900b8694-4c66-4f61-8aa6-b465e158433f","$version":"A","$type":"Bolt.CustomEvent","$id":"130"},{"chainable":false,"member":{"name":"SetActive","parameterTypes":["System.Boolean"],"targetType":"UnityEngine.GameObject","targetTypeName":"UnityEngine.GameObject","$version":"A"},"defaultValues":{"target":null,"%value":{"$content":true,"$type":"System.Boolean"}},"position":{"x":16.0,"y":-856.0},"guid":"417d345b-af58-42c4-b370-a3c00325f523","$version":"A","$type":"Bolt.InvokeMember","$id":"132"},{"specifyFallback":false,"kind":"Object","defaultValues":{"name":{"$content":"Canvas","$type":"System.String"},"object":null},"position":{"x":528.0,"y":1155.0},"guid":"09eb7408-ee57-42c7-81d6-1615cfbf56b4","$version":"A","$type":"Bolt.GetVariable","$id":"135"},{"chainable":false,"member":{"name":"SetActive","parameterTypes":["System.Boolean"],"targetType":"UnityEngine.GameObject","targetTypeName":"UnityEngine.GameObject","$version":"A"},"defaultValues":{"target":null,"%value":{"$content":false,"$type":"System.Boolean"}},"position":{"x":818.0,"y":712.0},"guid":"f0d96a22-017b-4a9c-b056-127d4f7aace7","$version":"A","$type":"Bolt.InvokeMember","$id":"137"},{"coroutine":false,"defaultValues":{"name":{"$content":"Quit","$type":"System.String"}},"position":{"x":-698.0,"y":367.0},"guid":"04e59bb9-3087-4430-9d54-98f3ec033f03","$version":"A","$type":"Bolt.BoltUnityEvent","$id":"140"},{"chainable":false,"member":{"name":"timeScale","parameterTypes":null,"targetType":"UnityEngine.Time","targetTypeName":"UnityEngine.Time","$version":"A"},"defaultValues":{"input":{"$content":1.0,"$type":"System.Single"}},"position":{"x":985.0,"y":85.0},"guid":"8a61d5eb-dbe2-48ae-81e4-1fd9acbc2bd1","$version":"A","$type":"Bolt.SetMember","$id":"142"},{"type":"System.Boolean","value":{"$content":true,"$type":"System.Boolean"},"defaultValues":{},"position":{"x":1177.0,"y":454.0},"guid":"1d3e81d8-c4b9-48ca-809f-f54899e8ffd7","$version":"A","$type":"Bolt.Literal","$id":"145"},{"specifyFallback":false,"kind":"Graph","defaultValues":{"name":{"$content":"bSettingIsNotOpen","$type":"System.String"}},"position":{"x":147.0,"y":180.0},"guid":"81008fb0-ac33-4c11-961b-50c35cfbfb1a","$version":"A","$type":"Bolt.GetVariable","$id":"147"},{"type":"System.String","value":{"$content":"VerticalQW","$type":"System.String"},"defaultValues":{},"position":{"x":2367.0,"y":1140.0},"guid":"63451757-b136-451f-a14c-a6bf159be6c3","$version":"A","$type":"Bolt.Literal","$id":"149"},{"chainable":false,"member":{"name":"timeScale","parameterTypes":null,"targetType":"UnityEngine.Time","targetTypeName":"UnityEngine.Time","$version":"A"},"defaultValues":{"input":{"$content":1.0,"$type":"System.Single"}},"position":{"x":921.0,"y":1068.0},"guid":"c8869379-37de-45a7-95e1-e54e36361ee6","$version":"A","$type":"Bolt.SetMember","$id":"151"},{"kind":"Application","defaultValues":{"name":{"$content":"Audio_Value","$type":"System.String"}},"position":{"x":3066.0,"y":607.0},"guid":"7a5cb240-5eec-4331-a556-f7b12b56be26","$version":"A","$type":"Bolt.SetVariable","$id":"154"},{"type":"System.Boolean","value":{"$content":false,"$type":"System.Boolean"},"defaultValues":{},"position":{"x":225.0,"y":-81.0},"guid":"0a0eee2d-fbac-49f8-af4a-0eca64107b58","$version":"A","$type":"Bolt.Literal","$id":"156"},{"specifyFallback":false,"kind":"Graph","defaultValues":{"name":{"$content":"levelToLoad","$type":"System.String"}},"position":{"x":788.0,"y":1875.0},"guid":"46384c3f-0dd2-4c3d-a621-c44105e2a1e4","$version":"A","$type":"Bolt.GetVariable","$id":"158"},{"specifyFallback":false,"kind":"Object","defaultValues":{"name":{"$content":"ZoneBoutons","$type":"System.String"},"object":null},"position":{"x":854.0,"y":445.0},"guid":"12261502-9e6c-4367-9dab-c61de6632585","$version":"A","$type":"Bolt.GetVariable","$id":"160"},{"coroutine":false,"defaultValues":{},"position":{"x":-579.0,"y":692.0},"guid":"a22be5d8-dc5e-4bf2-bb58-a9bc1d04d365","$version":"A","$type":"Bolt.Start","$id":"162"},{"member":{"name":"volume","parameterTypes":null,"targetType":"UnityEngine.AudioSource","targetTypeName":"UnityEngine.AudioSource","$version":"A"},"defaultValues":{"target":null},"position":{"x":1959.0,"y":586.0},"guid":"e3001f82-89d3-4e7f-991e-f03b105bae07","$version":"A","$type":"Bolt.GetMember"},{"specifyFallback":false,"kind":"Object","defaultValues":{"name":{"$content":"HUD","$type":"System.String"},"object":null},"position":{"x":1148.0,"y":1327.0},"guid":"a9806342-641e-4ff2-8e24-1204db1e89ca","$version":"A","$type":"Bolt.GetVariable","$id":"167"},{"chainable":false,"member":{"name":"SetActive","parameterTypes":["System.Boolean"],"targetType":"UnityEngine.GameObject","targetTypeName":"UnityEngine.GameObject","$version":"A"},"defaultValues":{"target":null,"%value":{"$content":true,"$type":"System.Boolean"}},"position":{"x":459.0,"y":712.0},"guid":"dacd93fd-f7e8-484b-b0f7-aafca21c9ae2","$version":"A","$type":"Bolt.InvokeMember","$id":"169"},{"chainable":false,"member":{"name":"SetActive","parameterTypes":["System.Boolean"],"targetType":"UnityEngine.GameObject","targetTypeName":"UnityEngine.GameObject","$version":"A"},"defaultValues":{"target":null,"%value":{"$content":false,"$type":"System.Boolean"}},"position":{"x":710.0,"y":1071.0},"guid":"2c8f0d73-ed63-465e-861b-4043287a6189","$version":"A","$type":"Bolt.InvokeMember","$id":"172"},{"chainable":false,"member":{"name":"LoadScene","parameterTypes":["System.Int32"],"targetType":"UnityEngine.SceneManagement.SceneManager","targetTypeName":"UnityEngine.SceneManagement.SceneManager","$version":"A"},"defaultValues":{"%sceneBuildIndex":{"$content":0,"$type":"System.Int32"}},"position":{"x":1091.0,"y":1698.0},"guid":"a0825bed-d380-4040-8261-d2666102353c","$version":"A","$type":"Bolt.InvokeMember","$id":"175"},{"specifyFallback":false,"kind":"Scene","defaultValues":{"name":{"$content":"Sound_Manager","$type":"System.String"}},"position":{"x":2458.0,"y":759.0},"guid":"a9dea735-186b-4bef-8349-29f75d33155f","$version":"A","$type":"Bolt.GetVariable","$id":"178"},{"defaultValues":{},"position":{"x":-546.0,"y":789.0},"guid":"ef0760c6-faaf-4f16-a964-22b0bef0b61c","$version":"A","$type":"Bolt.Self","$id":"180"},{"chainable":false,"member":{"name":"volume","parameterTypes":null,"targetType":"UnityEngine.AudioSource","targetTypeName":"UnityEngine.AudioSource","$version":"A"},"defaultValues":{"target":null,"input":{"$content":0.0,"$type":"System.Single"}},"position":{"x":2830.0,"y":590.0},"guid":"f2e5632e-c375-4723-88d5-1c087fb254a5","$version":"A","$type":"Bolt.SetMember","$id":"182"},{"chainable":false,"member":{"name":"SetActive","parameterTypes":["System.Boolean"],"targetType":"UnityEngine.GameObject","targetTypeName":"UnityEngine.GameObject","$version":"A"},"defaultValues":{"target":null,"%value":{"$content":false,"$type":"System.Boolean"}},"position":{"x":1317.0,"y":77.0},"guid":"b3548a09-dd69-4ac9-b4f6-cd358b0e87ef","$version":"A","$type":"Bolt.InvokeMember","$id":"185"},{"chainable":false,"member":{"name":"SetActive","parameterTypes":["System.Boolean"],"targetType":"UnityEngine.GameObject","targetTypeName":"UnityEngine.GameObject","$version":"A"},"defaultValues":{"target":null,"%value":{"$content":true,"$type":"System.Boolean"}},"position":{"x":826.0,"y":-242.0},"guid":"139f659b-0645-4131-b888-9449d784e9ce","$version":"A","$type":"Bolt.InvokeMember","$id":"188"},{"defaultValues":{},"position":{"x":-80.0,"y":-105.0},"guid":"eff4472a-aec9-4f46-b6ee-15c4b3acda16","$version":"A","$type":"Bolt.Branch","$id":"191"},{"type":"System.Boolean","value":{"$content":true,"$type":"System.Boolean"},"defaultValues":{},"position":{"x":573.0,"y":157.0},"guid":"00645d94-f6ee-4eae-a18a-95b2b51313ca","$version":"A","$type":"Bolt.Literal","$id":"193"},{"chainable":false,"member":{"name":"SetActive","parameterTypes":["System.Boolean"],"targetType":"UnityEngine.GameObject","targetTypeName":"UnityEngine.GameObject","$version":"A"},"defaultValues":{"target":null,"%value":{"$content":true,"$type":"System.Boolean"}},"position":{"x":11.0,"y":-999.0},"guid":"edfad040-61a1-4d8d-b4ea-0835af1e42c1","$version":"A","$type":"Bolt.InvokeMember","$id":"195"},{"type":"System.String","value":{"$content":"Horizontal","$type":"System.String"},"defaultValues":{},"position":{"x":1976.0,"y":1558.0},"guid":"acd10b83-339b-4f44-a9b7-78e0705715cf","$version":"A","$type":"Bolt.Literal","$id":"198"},{"chainable":false,"member":{"name":"visible","parameterTypes":null,"targetType":"UnityEngine.Cursor","targetTypeName":"UnityEngine.Cursor","$version":"A"},"defaultValues":{"input":{"$content":true,"$type":"System.Boolean"}},"position":{"x":1021.0,"y":-243.0},"guid":"0eaeee65-f45a-485e-9b64-4cdd567249a4","$version":"A","$type":"Bolt.SetMember","$id":"200"},{"chainable":false,"member":{"name":"visible","parameterTypes":null,"targetType":"UnityEngine.Cursor","targetTypeName":"UnityEngine.Cursor","$version":"A"},"defaultValues":{"input":{"$content":false,"$type":"System.Boolean"}},"position":{"x":1148.0,"y":1063.0},"guid":"317b214c-d0e1-4c94-a5fc-1e55ed00addf","$version":"A","$type":"Bolt.SetMember","$id":"203"},{"specifyFallback":false,"kind":"Object","defaultValues":{"name":{"$content":"ZoneSetting","$type":"System.String"},"object":null},"position":{"x":240.0,"y":783.0},"guid":"65c712d5-4036-488e-9de1-c8123920a40a","$version":"A","$type":"Bolt.GetVariable","$id":"206"},{"coroutine":false,"defaultValues":{"key":{"$content":"Escape","$type":"UnityEngine.KeyCode"},"action":{"$content":"Down","$type":"Ludiq.PressState"}},"position":{"x":-410.0,"y":-113.0},"guid":"6066a9a9-b1aa-47cf-a225-d22084e13944","$version":"A","$type":"Bolt.OnKeyboardInput","$id":"208"},{"type":"System.Boolean","value":{"$content":false,"$type":"System.Boolean"},"defaultValues":{},"position":{"x":983.0,"y":811.0},"guid":"7c7d9e88-56a5-464f-a2e9-2351098ffbcd","$version":"A","$type":"Bolt.Literal","$id":"210"},{"defaultValues":{},"position":{"x":404.0,"y":114.0},"guid":"26635f8b-1ab4-40c9-aa00-a19cb78243a0","$version":"A","$type":"Bolt.Branch","$id":"212"},{"kind":"Graph","defaultValues":{"name":{"$content":"levelToLoad","$type":"System.String"}},"position":{"x":474.0,"y":1695.0},"guid":"39543b9f-dff5-4396-92ba-015a67209bee","$version":"A","$type":"Bolt.SetVariable","$id":"214"},{"sourceUnit":{"$ref":"132"},"sourceKey":"exit","destinationUnit":{"$ref":"58"},"destinationKey":"enter","guid":"326eed8f-a90e-4290-a1fd-4ad2a1d3d8a0","$type":"Bolt.ControlConnection"},{"sourceUnit":{"$ref":"128"},"sourceKey":"trigger","destinationUnit":{"$ref":"35"},"destinationKey":"assign","guid":"0d79efcc-e068-40d1-b677-23ef30fcf737","$type":"Bolt.ControlConnection"},{"sourceUnit":{"$ref":"94"},"sourceKey":"assigned","destinationUnit":{"$ref":"96"},"destinationKey":"assign","guid":"5b1ef673-7913-42de-bae0-70986c9fe10e","$type":"Bolt.ControlConnection"},{"sourceUnit":{"$ref":"12"},"sourceKey":"trigger","destinationUnit":{"$ref":"29"},"destinationKey":"assign","guid":"959bf886-45d6-4eab-9385-5a66d478fe59","$type":"Bolt.ControlConnection"},{"sourceUnit":{"$ref":"70"},"sourceKey":"trigger","destinationUnit":{"$ref":"182"},"destinationKey":"assign","guid":"678a23bb-2197-4780-9591-f1866d408060","$type":"Bolt.ControlConnection"},{"sourceUnit":{"$ref":"109"},"sourceKey":"trigger","destinationUnit":{"$ref":"195"},"destinationKey":"enter","guid":"09baf81d-ed28-44e2-a16e-21722be3348d","$type":"Bolt.ControlConnection"},{"sourceUnit":{"$ref":"130"},"sourceKey":"trigger","destinationUnit":{"$ref":"132"},"destinationKey":"enter","guid":"28ed3d3a-37d9-4515-847b-44d46c4be1e9","$type":"Bolt.ControlConnection"},{"sourceUnit":{"$ref":"56"},"sourceKey":"trigger","destinationUnit":{"$ref":"169"},"destinationKey":"enter","guid":"f9b94345-c771-4c53-86cd-3b377144e5aa","$type":"Bolt.ControlConnection"},{"sourceUnit":{"$ref":"98"},"sourceKey":"trigger","destinationUnit":{"$ref":"191"},"destinationKey":"enter","guid":"21f14959-8585-49c5-abf5-63d028fb6511","$type":"Bolt.ControlConnection"},{"sourceUnit":{"$ref":"29"},"sourceKey":"assigned","destinationUnit":{"$ref":"172"},"destinationKey":"enter","guid":"95d1e758-75c0-4d68-adc3-555fb0d9000f","$type":"Bolt.ControlConnection"},{"sourceUnit":{"$ref":"172"},"sourceKey":"exit","destinationUnit":{"$ref":"151"},"destinationKey":"assign","guid":"73053be3-6dbc-42b7-bfa9-c556a4a1e74f","$type":"Bolt.ControlConnection"},{"sourceUnit":{"$ref":"182"},"sourceKey":"assigned","destinationUnit":{"$ref":"154"},"destinationKey":"assign","guid":"fbbfe3fe-2050-46a9-9856-8edbd72d3bd1","$type":"Bolt.ControlConnection"},{"sourceUnit":{"$ref":"74"},"sourceKey":"trigger","destinationUnit":{"$ref":"14"},"destinationKey":"enter","guid":"3d9ac381-9f44-4269-8f4d-db86bd24fca7","$type":"Bolt.ControlConnection"},{"sourceUnit":{"$ref":"212"},"sourceKey":"ifFalse","destinationUnit":{"$ref":"19"},"destinationKey":"enter","guid":"d5f9451c-1c61-4517-81b3-3c41fcd96a78","$type":"Bolt.ControlConnection"},{"sourceUnit":{"$ref":"140"},"sourceKey":"trigger","destinationUnit":{"$ref":"125"},"destinationKey":"enter","guid":"af479c82-6285-40c1-b5b7-0a7f1f2cac72","$type":"Bolt.ControlConnection"},{"sourceUnit":{"$ref":"185"},"sourceKey":"exit","destinationUnit":{"$ref":"45"},"destinationKey":"assign","guid":"9b36919c-9310-41ca-a842-2821ce1d0a76","$type":"Bolt.ControlConnection"},{"sourceUnit":{"$ref":"19"},"sourceKey":"exit","destinationUnit":{"$ref":"38"},"destinationKey":"enter","guid":"955c73ff-1436-4222-8236-e8455ee9ad33","$type":"Bolt.ControlConnection"},{"sourceUnit":{"$ref":"212"},"sourceKey":"ifTrue","destinationUnit":{"$ref":"90"},"destinationKey":"assign","guid":"afbcd7c6-954f-4e55-bab4-607d78ad5794","$type":"Bolt.ControlConnection"},{"sourceUnit":{"$ref":"92"},"sourceKey":"trigger","destinationUnit":{"$ref":"54"},"destinationKey":"assign","guid":"0bc19e5d-8cb2-471f-aa02-667c4c03c48f","$type":"Bolt.ControlConnection"},{"sourceUnit":{"$ref":"203"},"sourceKey":"assigned","destinationUnit":{"$ref":"76"},"destinationKey":"enter","guid":"8a4b3861-3434-4dcf-a68f-8fa69b736668","$type":"Bolt.ControlConnection"},{"sourceUnit":{"$ref":"102"},"sourceKey":"trigger","destinationUnit":{"$ref":"61"},"destinationKey":"enter","guid":"015addb8-ce23-42bd-93eb-d4b3545df2b5","$type":"Bolt.ControlConnection"},{"sourceUnit":{"$ref":"169"},"sourceKey":"exit","destinationUnit":{"$ref":"137"},"destinationKey":"enter","guid":"4dfb8b29-caf4-4511-9760-53b21a521994","$type":"Bolt.ControlConnection"},{"sourceUnit":{"$ref":"67"},"sourceKey":"exit","destinationUnit":{"$ref":"175"},"destinationKey":"enter","guid":"61a46c62-9d0e-4c65-8495-e1b48d55cc00","$type":"Bolt.ControlConnection"},{"sourceUnit":{"$ref":"45"},"sourceKey":"assigned","destinationUnit":{"$ref":"26"},"destinationKey":"enter","guid":"fda1fd4e-51b4-4e5b-9da2-42ff92befa62","$type":"Bolt.ControlConnection"},{"sourceUnit":{"$ref":"90"},"sourceKey":"assigned","destinationUnit":{"$ref":"142"},"destinationKey":"assign","guid":"059234c9-06c0-4658-a11e-77594f45a5c4","$type":"Bolt.ControlConnection"},{"sourceUnit":{"$ref":"208"},"sourceKey":"trigger","destinationUnit":{"$ref":"191"},"destinationKey":"enter","guid":"0290069e-c5ea-4d54-837b-8f308c3b8bf3","$type":"Bolt.ControlConnection"},{"sourceUnit":{"$ref":"115"},"sourceKey":"exit","destinationUnit":{"$ref":"111"},"destinationKey":"assign","guid":"0155dbb7-6756-42fd-b2f3-6044f87307a2","$type":"Bolt.ControlConnection"},{"sourceUnit":{"$ref":"113"},"sourceKey":"trigger","destinationUnit":{"$ref":"94"},"destinationKey":"assign","guid":"5bb5ad3a-2c6e-4b4e-9903-f7b0a974c737","$type":"Bolt.ControlConnection"},{"sourceUnit":{"$ref":"64"},"sourceKey":"exit","destinationUnit":{"$ref":"120"},"destinationKey":"enter","guid":"82fb1aa7-62de-476e-89c7-a13278b7c3a4","$type":"Bolt.ControlConnection"},{"sourceUnit":{"$ref":"111"},"sourceKey":"assigned","destinationUnit":{"$ref":"106"},"destinationKey":"assign","guid":"ee9c4782-5f92-4923-9695-3f584845fc6a","$type":"Bolt.ControlConnection"},{"sourceUnit":{"$ref":"106"},"sourceKey":"assigned","destinationUnit":{"$ref":"188"},"destinationKey":"enter","guid":"37365acb-bc79-4fa4-b655-0d036f09e6ee","$type":"Bolt.ControlConnection"},{"sourceUnit":{"$ref":"188"},"sourceKey":"exit","destinationUnit":{"$ref":"200"},"destinationKey":"assign","guid":"5cb32103-da6f-4dec-8a92-aa9991b90b11","$type":"Bolt.ControlConnection"},{"sourceUnit":{"$ref":"214"},"sourceKey":"assigned","destinationUnit":{"$ref":"67"},"destinationKey":"enter","guid":"6766dac2-a71b-48d5-b195-e8042c972e90","$type":"Bolt.ControlConnection"},{"sourceUnit":{"$ref":"191"},"sourceKey":"ifFalse","destinationUnit":{"$ref":"212"},"destinationKey":"enter","guid":"56baa1d6-8b95-4a80-92a3-c7ac881b64fe","$type":"Bolt.ControlConnection"},{"sourceUnit":{"$ref":"151"},"sourceKey":"assigned","destinationUnit":{"$ref":"203"},"destinationKey":"assign","guid":"34692abc-9afa-4592-a6b5-d0b5e98ae886","$type":"Bolt.ControlConnection"},{"sourceUnit":{"$ref":"38"},"sourceKey":"exit","destinationUnit":{"$ref":"88"},"destinationKey":"assign","guid":"d1c815ff-3c77-40c7-84a4-d351988bfca9","$type":"Bolt.ControlConnection"},{"sourceUnit":{"$ref":"54"},"sourceKey":"assigned","destinationUnit":{"$ref":"48"},"destinationKey":"assign","guid":"c47dd881-4952-4af7-8c03-8ec50270849a","$type":"Bolt.ControlConnection"},{"sourceUnit":{"$ref":"137"},"sourceKey":"exit","destinationUnit":{"$ref":"52"},"destinationKey":"assign","guid":"1b9232ab-d42f-4029-8b13-97cfe00affa5","$type":"Bolt.ControlConnection"},{"sourceUnit":{"$ref":"191"},"sourceKey":"ifTrue","destinationUnit":{"$ref":"115"},"destinationKey":"enter","guid":"538094ef-9f9b-43f0-8955-93a3a7e9f122","$type":"Bolt.ControlConnection"},{"sourceUnit":{"$ref":"142"},"sourceKey":"assigned","destinationUnit":{"$ref":"185"},"destinationKey":"enter","guid":"4c62fe2c-5474-4a62-b1b9-8f5c383bd7ee","$type":"Bolt.ControlConnection"},{"sourceUnit":{"$ref":"61"},"sourceKey":"exit","destinationUnit":{"$ref":"64"},"destinationKey":"enter","guid":"fc681f75-0b7d-45af-b78d-bf99c4d72506","$type":"Bolt.ControlConnection"},{"sourceUnit":{"$ref":"162"},"sourceKey":"trigger","destinationUnit":{"$ref":"86"},"destinationKey":"assign","guid":"fd9f495c-f5d1-4a66-8516-9eff1bdc6a46","$type":"Bolt.ControlConnection"},{"sourceUnit":{"$ref":"118"},"sourceKey":"trigger","destinationUnit":{"$ref":"214"},"destinationKey":"assign","guid":"7a7f6227-6b9b-453e-8450-7bdf4b477e7b","$type":"Bolt.ControlConnection"},{"sourceUnit":{"$ref":"102"},"sourceKey":"argument_0","destinationUnit":{"$ref":"61"},"destinationKey":"target","guid":"c73a94c1-339d-4e52-a324-edce70bb1536","$type":"Bolt.ValueConnection"},{"sourceUnit":{"$ref":"156"},"sourceKey":"output","destinationUnit":{"$ref":"111"},"destinationKey":"input","guid":"c5998257-d321-4da3-82d1-9839ad8469de","$type":"Bolt.ValueConnection"},{"sourceUnit":{"$ref":"130"},"sourceKey":"argument_1","destinationUnit":{"$ref":"58"},"destinationKey":"target","guid":"926a2126-1913-4730-9a32-e68b089135f5","$type":"Bolt.ValueConnection"},{"sourceUnit":{"$ref":"130"},"sourceKey":"argument_0","destinationUnit":{"$ref":"132"},"destinationKey":"target","guid":"4bf8f2fc-d178-43a3-8eb7-bf07a635905a","$type":"Bolt.ValueConnection"},{"sourceUnit":{"$ref":"102"},"sourceKey":"argument_1","destinationUnit":{"$ref":"64"},"destinationKey":"target","guid":"c65276ed-a48d-4214-bc73-c7adfeccbae2","$type":"Bolt.ValueConnection"},{"sourceUnit":{"$ref":"109"},"sourceKey":"argument_0","destinationUnit":{"$ref":"195"},"destinationKey":"target","guid":"dfaab4ab-67be-40ff-9689-530a49fc86c1","$type":"Bolt.ValueConnection"},{"sourceUnit":{"$ref":"24"},"sourceKey":"value","destinationUnit":{"$ref":"185"},"destinationKey":"target","guid":"b6d49f15-ec63-48de-8df5-7d38d3e630b0","$type":"Bolt.ValueConnection"},{"sourceUnit":{"$ref":"145"},"sourceKey":"output","destinationUnit":{"$ref":"88"},"destinationKey":"input","guid":"4f69163e-2398-4573-87e7-5e3db33e51f1","$type":"Bolt.ValueConnection"},{"sourceUnit":{"$ref":"50"},"sourceKey":"value","destinationUnit":{"$ref":"19"},"destinationKey":"target","guid":"f61ca389-5e19-4bc3-810c-4f0428945f2d","$type":"Bolt.ValueConnection"},{"sourceUnit":{"$ref":"123"},"sourceKey":"value","destinationUnit":{"$ref":"188"},"destinationKey":"target","guid":"74009081-dec5-40ec-a598-cb9d33c13a5b","$type":"Bolt.ValueConnection"},{"sourceUnit":{"$ref":"147"},"sourceKey":"value","destinationUnit":{"$ref":"212"},"destinationKey":"condition","guid":"df940e6a-78e9-4c55-812a-7c87f70e50a7","$type":"Bolt.ValueConnection"},{"sourceUnit":{"$ref":"102"},"sourceKey":"argument_2","destinationUnit":{"$ref":"120"},"destinationKey":"target","guid":"267a9c26-05a1-49f0-a666-adb844506b88","$type":"Bolt.ValueConnection"},{"sourceUnit":{"$ref":"22"},"sourceKey":"output","destinationUnit":{"$ref":"48"},"destinationKey":"input","guid":"987d665d-0ef4-4dcb-be1e-b42d31de66d7","$type":"Bolt.ValueConnection"},{"sourceUnit":{"$ref":"210"},"sourceKey":"output","destinationUnit":{"$ref":"52"},"destinationKey":"input","guid":"8341f92e-d479-42d7-97a5-46b6d519759c","$type":"Bolt.ValueConnection"},{"sourceUnit":{"$ref":"198"},"sourceKey":"output","destinationUnit":{"$ref":"54"},"destinationKey":"input","guid":"adf4305a-98db-4f38-b35a-bddd5318fa36","$type":"Bolt.ValueConnection"},{"sourceUnit":{"$ref":"17"},"sourceKey":"value","destinationUnit":{"$ref":"191"},"destinationKey":"condition","guid":"28160093-9266-4855-a90f-113e01267663","$type":"Bolt.ValueConnection"},{"sourceUnit":{"$ref":"31"},"sourceKey":"output","destinationUnit":{"$ref":"94"},"destinationKey":"input","guid":"b8a4f8d2-6756-4259-bd9a-5a17a59bbd18","$type":"Bolt.ValueConnection"},{"sourceUnit":{"$ref":"72"},"sourceKey":"value","destinationUnit":{"$ref":"35"},"destinationKey":"target","guid":"8989b4e1-f873-49e4-b726-ae6f25548073","$type":"Bolt.ValueConnection"},{"sourceUnit":{"$ref":"79"},"sourceKey":"value","destinationUnit":{"$ref":"182"},"destinationKey":"input","guid":"a6c18531-b0ce-4a1e-9811-4950fc64404a","$type":"Bolt.ValueConnection"},{"sourceUnit":{"$ref":"158"},"sourceKey":"value","destinationUnit":{"$ref":"175"},"destinationKey":"%sceneBuildIndex","guid":"042f7d9f-2fc7-4e6f-9c54-26e0cdc06746","$type":"Bolt.ValueConnection"},{"sourceUnit":{"$ref":"72"},"sourceKey":"value","destinationUnit":{"$ref":"79"},"destinationKey":"target","guid":"125032f4-32f3-406a-a15b-c3127e5faf2f","$type":"Bolt.ValueConnection"},{"sourceUnit":{"$ref":"104"},"sourceKey":"value","destinationUnit":{"$ref":"137"},"destinationKey":"target","guid":"c0944df4-a2aa-4925-9091-0ae81f58ed45","$type":"Bolt.ValueConnection"},{"sourceUnit":{"$ref":"84"},"sourceKey":"value","destinationUnit":{"$ref":"115"},"destinationKey":"target","guid":"bcda0692-5cf5-4c3e-9e0b-fba111da50cb","$type":"Bolt.ValueConnection"},{"sourceUnit":{"$ref":"182"},"sourceKey":"output","destinationUnit":{"$ref":"154"},"destinationKey":"input","guid":"ff1f1df2-f974-436a-b9bc-5ad3cffde278","$type":"Bolt.ValueConnection"},{"sourceUnit":{"$ref":"118"},"sourceKey":"argument_0","destinationUnit":{"$ref":"214"},"destinationKey":"input","guid":"306cf566-5fab-4347-8f3e-f7478482de0b","$type":"Bolt.ValueConnection"},{"sourceUnit":{"$ref":"100"},"sourceKey":"value","destinationUnit":{"$ref":"35"},"destinationKey":"input","guid":"f472445b-a4bb-40d7-a00c-06b6c7d524fb","$type":"Bolt.ValueConnection"},{"sourceUnit":{"$ref":"43"},"sourceKey":"value","destinationUnit":{"$ref":"67"},"destinationKey":"target","guid":"7340ccaa-c3c1-4f72-8edf-86ba31ca4761","$type":"Bolt.ValueConnection"},{"sourceUnit":{"$ref":"193"},"sourceKey":"output","destinationUnit":{"$ref":"90"},"destinationKey":"input","guid":"4b2eafe3-807c-4baa-9afd-46c1e7d44886","$type":"Bolt.ValueConnection"},{"sourceUnit":{"$ref":"33"},"sourceKey":"output","destinationUnit":{"$ref":"29"},"destinationKey":"input","guid":"d0bfdc14-71ee-4ed9-879d-2a011b57f141","$type":"Bolt.ValueConnection"},{"sourceUnit":{"$ref":"206"},"sourceKey":"value","destinationUnit":{"$ref":"169"},"destinationKey":"target","guid":"73494b8d-9506-432a-9a82-669dd9cb28af","$type":"Bolt.ValueConnection"},{"sourceUnit":{"$ref":"167"},"sourceKey":"value","destinationUnit":{"$ref":"76"},"destinationKey":"target","guid":"22d25f81-3db9-41ca-b006-31236d3e8a44","$type":"Bolt.ValueConnection"},{"sourceUnit":{"$ref":"180"},"sourceKey":"self","destinationUnit":{"$ref":"86"},"destinationKey":"input","guid":"06e299e2-f1ec-4d8d-9c6c-c9f02f8096d5","$type":"Bolt.ValueConnection"},{"sourceUnit":{"$ref":"135"},"sourceKey":"value","destinationUnit":{"$ref":"172"},"destinationKey":"target","guid":"3db96740-91dd-48c2-a532-c4bd5c59500c","$type":"Bolt.ValueConnection"},{"sourceUnit":{"$ref":"160"},"sourceKey":"value","destinationUnit":{"$ref":"38"},"destinationKey":"target","guid":"1d2b5fc4-016d-4989-ba18-ee929b9ae55e","$type":"Bolt.ValueConnection"},{"sourceUnit":{"$ref":"149"},"sourceKey":"output","destinationUnit":{"$ref":"96"},"destinationKey":"input","guid":"5c365150-a980-46a9-9af4-faa06e6c3871","$type":"Bolt.ValueConnection"},{"sourceUnit":{"$ref":"178"},"sourceKey":"value","destinationUnit":{"$ref":"182"},"destinationKey":"target","guid":"30c3ecc1-fb2e-4907-bc63-809fabc62ee1","$type":"Bolt.ValueConnection"},{"sourceUnit":{"$ref":"82"},"sourceKey":"value","destinationUnit":{"$ref":"26"},"destinationKey":"target","guid":"ffb26337-cb41-402b-b7a2-efda4227c17a","$type":"Bolt.ValueConnection"},{"position":{"xMin":-424.9998,"yMin":-1082.0,"xMax":635.0005,"yMax":-516.9998},"label":"Function
      SetVisible","comment":null,"color":{"r":1.0,"g":0.0,"b":0.0,"a":1.0},"guid":"344ef30d-7b6e-4749-87fd-2e32259ca8ef","$version":"A","$type":"Ludiq.GraphGroup"},{"position":{"xMin":1788.429,"yMin":895.2857,"xMax":2955.571,"yMax":1780.286},"label":"Controls","comment":null,"color":{"r":0.0,"g":0.0,"b":0.0,"a":1.0},"guid":"a4ce031b-e931-4afa-9f84-a439831d2731","$version":"A","$type":"Ludiq.GraphGroup"},{"position":{"xMin":1935.0,"yMin":266.0,"xMax":3413.0,"yMax":779.0},"label":"Audio_Controller","comment":null,"color":{"r":0.0,"g":0.0,"b":0.0,"a":1.0},"guid":"e70ce2fd-164e-4116-8d0e-8741bd0a6501","$version":"A","$type":"Ludiq.GraphGroup"}],"$version":"A"}}'
    _objectReferences: []
